<?xml version="1.0" encoding="UTF-8"?>
<svg width="10px" height="16px" viewBox="0 0 10 16" version="1.1" xmlns="http://www.w3.org/2000/svg" xmlns:xlink="http://www.w3.org/1999/xlink">
    <!-- Generator: Sketch 58 (84663) - https://sketch.com -->
    <title>Path 3 Copy 2</title>
    <desc>Created with Sketch.</desc>
    <g id="Current" stroke="none" stroke-width="1" fill="none" fill-rule="evenodd" stroke-linecap="round" stroke-linejoin="round">
        <g id="Homepage-Copy-2" transform="translate(-602.000000, -1266.000000)" stroke="#008094" stroke-width="3">
            <polyline id="Path-3-Copy-2" transform="translate(607.201752, 1273.515665) rotate(-270.000000) translate(-607.201752, -1273.515665) " points="613.2447 1276.51567 607.200611 1270.51567 601.158803 1276.51567"></polyline>
        </g>
    </g>
</svg>